// Jest Snapshot v1, https://goo.gl/fbAQLP

exports[`Header renders correctly 1`] = `
<header
  className="[ header-footer ]"
>
  <div
    className="[ header-content ]"
  >
    <span
      className="[ logo ]"
    >
      <a
        href="/"
      />
    </span>
    <nav
      className="[ header-nav ]"
    >
      <ul
        className="[ inline-list ]"
      >
        <li>
          <a
            href="/"
          >
            home
          </a>
        </li>
        <li>
          <a
            href="/blog/page/1"
          >
            blog
          </a>
        </li>
        <li>
          <a
            href="/archive"
          >
            archive
          </a>
        </li>
      </ul>
    </nav>
  </div>
  <hr
    className="[ separator separator-heavy ]"
  />
</header>
`;
